{
    "searchTerm":{
        "moduleVo":[
                    {
                    "id":11,
                    "name":"模块一",
                    "stageid":1111
                    }
                    ],
        "defaultValue":{
            "segment":10,
            "study":10
        },
        "isLockStudy":0,
        "segments":{
            "10":"小学1",
            "20":"初中2",
            "30":"高中3",
            "40":"学前4"
        },
        "studys":{
            "10":{
                "c":{
                    "10":"语文1",
                    "11":"数学2",
                    "12":"生物3",
                    "13":"垃圾4",
                    "14":"生死符是分开胜多负少5",
                    "15":"舒服舒服6",
                    "16":"是7",
                    "17":"发斯蒂芬8",
                    "18":"是否9",
                    "19":"可以10"
                },
                "g":{
                    "11":"一年级",
                    "12":"二年级"
                }
            },
            "20":{
                "c":{
                    "10":"语文",
                    "11":"数学"
                },
                "g":{
                    "21":"初一",
                    "22":"初二"
                }
            },
            "30":{
                "c":{
                    "10":"语文",
                    "11":"数学"
                },
                "g":{
                    "31":"高一",
                    "32":"高二"
                }
            },
            "40":{
                "c":{
                    "36":"学前教育"
                },
                "g":{
                    "0":"学前"
                }
            }
        }
    },
    "scheme":{
        "scheme":{
            "toolid":201,
            "finishnum":300,
            "finishscore":10,
            "type":0
        },
        "process":{
            "userfinishnum":200,
            "userfinishscore":10
        }
    },
    "descr":"当前7门必修，已看5门课程，已完成2门课程（当设置了完成考核时），累计看课时长50分钟",
    "objs":[
            {
            "name":"学为人师 行为世范——“四有”好老师",
            "trainingid":2286,
            "status":"102",
            "type":"102",
            "studycode":"0",
            "segmentcode":"0",
            "template":"Default0610",
            "id":10402325,
            "content":{
            "cinfo":"本课介绍了四有好老师的提出和内涵，希望广大教育工作者以习总书记的讲话精神为指引，以四有为标准，在教书育人的工作中不断创造新业绩。",
            "teacher":"研修网课程团队","imgurl":"http://scc.jsyxw.cn/course/37/8837.jpg"
            },
            "timelength":"2122",
            "speaker":"",
            "score":0,
            "isSelected":0,
            "pic":"http://scc.jsyxw.cn/course/37/8837.jpg",
            "studyName":null,
            "segmentName":null,
            "teacher":"研修网课程团队",
            "credit":null,
            "cinfo":"本课介绍了“四有”好老师的提出和内涵，希望广大教育工作者以习总书记的讲话精神为指引，以“四有”为标准，在教书育人的工作中不断创造新业绩。",
            "time": 60600,
            "stageid":4740,
            "isfinish":0,
            "quiz":{
            "finish":0,
            "total":1
            }
            },
            {
            "name":"学为人师 行为世范——“四有”好老师",
            "trainingid":2286,
            "status":"102",
            "type":"102",
            "studycode":"0",
            "segmentcode":"0",
            "template":"Default0610",
            "id":10402325,
            "content":
            {"cinfo":"本课介绍了四有好老师的提出和内涵，希望广大教育工作者以习总书记的讲话精神为指引，以四有为标准，在教书育人的工作中不断创造新业绩。","teacher":"研修网课程团队","imgurl":"http://scc.jsyxw.cn/course/37/8837.jpg"},
            "timelength":"2122",
            "speaker":"",
            "score":0,
            "isSelected":0,
            "pic":"http://scc.jsyxw.cn/course/37/8837.jpg",
            "studyName":null,
            "segmentName":null,
            "teacher":"研修网课程团队",
            "credit":null,
            "cinfo":"本课介绍了“四有”好老师的提出和内涵，希望广大教育工作者以习总书记的讲话精神为指引，以“四有”为标准，在教书育人的工作中不断创造新业绩。",
            "time": 60600,
            "stageid":4740,
            "isfinish":0,
            "quiz":{
            "finish":0,
            "total":1
            }
            },
            {
            "name":"学为人师 行为世范——“四有”好老师",
            "trainingid":2286,
            "status":"102",
            "type":"102",
            "studycode":"0",
            "segmentcode":"0",
            "template":"Default0610",
            "id":10402325,
            "content":
            {"cinfo":"本课介绍了四有好老师的提出和内涵，希望广大教育工作者以习总书记的讲话精神为指引，以四有为标准，在教书育人的工作中不断创造新业绩。","teacher":"研修网课程团队","imgurl":"http://scc.jsyxw.cn/course/37/8837.jpg"},
            "timelength":"2122",
            "speaker":"",
            "score":0,
            "isSelected":0,
            "pic":"http://scc.jsyxw.cn/course/37/8837.jpg",
            "studyName":null,
            "segmentName":null,
            "teacher":"研修网课程团队",
            "credit":null,
            "cinfo":"本课介绍了“四有”好老师的提出和内涵，希望广大教育工作者以习总书记的讲话精神为指引，以“四有”为标准，在教书育人的工作中不断创造新业绩。",
            "time": 60600,
            "stageid":4740,
            "isfinish":0,
            "quiz":{
            "finish":0,
            "total":1
            }
            },
            {
            "name":"学为人师 行为世范——“四有”好老师",
            "trainingid":2286,
            "status":"102",
            "type":"102",
            "studycode":"0",
            "segmentcode":"0",
            "template":"Default0610",
            "id":10402325,
            "content":
            {"cinfo":"本课介绍了四有好老师的提出和内涵，希望广大教育工作者以习总书记的讲话精神为指引，以四有为标准，在教书育人的工作中不断创造新业绩。","teacher":"研修网课程团队","imgurl":"http://scc.jsyxw.cn/course/37/8837.jpg"},
            "timelength":"2122",
            "speaker":"",
            "score":0,
            "isSelected":0,
            "pic":"http://scc.jsyxw.cn/course/37/8837.jpg",
            "studyName":null,
            "segmentName":null,
            "teacher":"研修网课程团队",
            "credit":null,
            "cinfo":"本课介绍了“四有”好老师的提出和内涵，希望广大教育工作者以习总书记的讲话精神为指引，以“四有”为标准，在教书育人的工作中不断创造新业绩。",
            "time": 60600,
            "stageid":4740,
            "isfinish":0,
            "quiz":{
            "finish":0,
            "total":1
            }
            },
            {
            "name":"学为人师 行为世范——“四有”好老师",
            "trainingid":2286,
            "status":"102",
            "type":"102",
            "studycode":"0",
            "segmentcode":"0",
            "template":"Default0610",
            "id":10402325,
            "content":
            {"cinfo":"本课介绍了四有好老师的提出和内涵，希望广大教育工作者以习总书记的讲话精神为指引，以四有为标准，在教书育人的工作中不断创造新业绩。","teacher":"研修网课程团队","imgurl":"http://scc.jsyxw.cn/course/37/8837.jpg"},
            "timelength":"2122",
            "speaker":"",
            "score":0,
            "isSelected":0,
            "pic":"http://scc.jsyxw.cn/course/37/8837.jpg",
            "studyName":null,
            "segmentName":null,
            "teacher":"研修网课程团队",
            "credit":null,
            "cinfo":"本课介绍了“四有”好老师的提出和内涵，希望广大教育工作者以习总书记的讲话精神为指引，以“四有”为标准，在教书育人的工作中不断创造新业绩。",
            "time": 60600,
            "stageid":4740,
            "isfinish":0,
            "quiz":{
            "finish":0,
            "total":1
            }
            },
            {
            "name":"学为人师 行为世范——“四有”好老师",
            "trainingid":2286,
            "status":"102",
            "type":"102",
            "studycode":"0",
            "segmentcode":"0",
            "template":"Default0610",
            "id":10402325,
            "content":
            {"cinfo":"本课介绍了四有好老师的提出和内涵，希望广大教育工作者以习总书记的讲话精神为指引，以四有为标准，在教书育人的工作中不断创造新业绩。","teacher":"研修网课程团队","imgurl":"http://scc.jsyxw.cn/course/37/8837.jpg"},
            "timelength":"2122",
            "speaker":"",
            "score":0,
            "isSelected":0,
            "pic":"http://scc.jsyxw.cn/course/37/8837.jpg",
            "studyName":null,
            "segmentName":null,
            "teacher":"研修网课程团队",
            "credit":null,
            "cinfo":"本课介绍了“四有”好老师的提出和内涵，希望广大教育工作者以习总书记的讲话精神为指引，以“四有”为标准，在教书育人的工作中不断创造新业绩。",
            "time": 60600,
            "stageid":4740,
            "isfinish":0,
            "quiz":{
            "finish":0,
            "total":1
            }
            },
            {
            "name":"学为人师 行为世范——“四有”好老师",
            "trainingid":2286,
            "status":"102",
            "type":"102",
            "studycode":"0",
            "segmentcode":"0",
            "template":"Default0610",
            "id":10402325,
            "content":
            {"cinfo":"本课介绍了四有好老师的提出和内涵，希望广大教育工作者以习总书记的讲话精神为指引，以四有为标准，在教书育人的工作中不断创造新业绩。","teacher":"研修网课程团队","imgurl":"http://scc.jsyxw.cn/course/37/8837.jpg"},
            "timelength":"2122",
            "speaker":"",
            "score":0,
            "isSelected":0,
            "pic":"http://scc.jsyxw.cn/course/37/8837.jpg",
            "studyName":null,
            "segmentName":null,
            "teacher":"研修网课程团队",
            "credit":null,
            "cinfo":"本课介绍了“四有”好老师的提出和内涵，希望广大教育工作者以习总书记的讲话精神为指引，以“四有”为标准，在教书育人的工作中不断创造新业绩。",
            "time": 60600,
            "stageid":4740,
            "isfinish":0,
            "quiz":{
            "finish":0,
            "total":1
            }
            },
            {
            "name":"学为人师 行为世范——“四有”好老师",
            "trainingid":2286,
            "status":"102",
            "type":"102",
            "studycode":"0",
            "segmentcode":"0",
            "template":"Default0610",
            "id":10402325,
            "content":
            {"cinfo":"本课介绍了四有好老师的提出和内涵，希望广大教育工作者以习总书记的讲话精神为指引，以四有为标准，在教书育人的工作中不断创造新业绩。","teacher":"研修网课程团队","imgurl":"http://scc.jsyxw.cn/course/37/8837.jpg"},
            "timelength":"2122",
            "speaker":"",
            "score":0,
            "isSelected":0,
            "pic":"http://scc.jsyxw.cn/course/37/8837.jpg",
            "studyName":null,
            "segmentName":null,
            "teacher":"研修网课程团队",
            "credit":null,
            "cinfo":"本课介绍了“四有”好老师的提出和内涵，希望广大教育工作者以习总书记的讲话精神为指引，以“四有”为标准，在教书育人的工作中不断创造新业绩。",
            "time": 60600,
            "stageid":4740,
            "isfinish":0,
            "quiz":{
            "finish":0,
            "total":1
            }
            },
            {
            "name":"学为人师 行为世范——“四有”好老师",
            "trainingid":2286,
            "status":"102",
            "type":"102",
            "studycode":"0",
            "segmentcode":"0",
            "template":"Default0610",
            "id":10402325,
            "content":
            {"cinfo":"本课介绍了四有好老师的提出和内涵，希望广大教育工作者以习总书记的讲话精神为指引，以四有为标准，在教书育人的工作中不断创造新业绩。","teacher":"研修网课程团队","imgurl":"http://scc.jsyxw.cn/course/37/8837.jpg"},
            "timelength":"2122",
            "speaker":"",
            "score":0,
            "isSelected":0,
            "pic":"http://scc.jsyxw.cn/course/37/8837.jpg",
            "studyName":null,
            "segmentName":null,
            "teacher":"研修网课程团队",
            "credit":null,
            "cinfo":"本课介绍了“四有”好老师的提出和内涵，希望广大教育工作者以习总书记的讲话精神为指引，以“四有”为标准，在教书育人的工作中不断创造新业绩。",
            "time": 60600,
            "stageid":4740,
            "isfinish":0,
            "quiz":{
            "finish":0,
            "total":1
            }
            },
            {
            "name":"学为人师 行为世范——“四有”好老师",
            "trainingid":2286,
            "status":"102",
            "type":"102",
            "studycode":"0",
            "segmentcode":"0",
            "template":"Default0610",
            "id":10402325,
            "content":
            {"cinfo":"本课介绍了四有好老师的提出和内涵，希望广大教育工作者以习总书记的讲话精神为指引，以四有为标准，在教书育人的工作中不断创造新业绩。","teacher":"研修网课程团队","imgurl":"http://scc.jsyxw.cn/course/37/8837.jpg"},
            "timelength":"2122",
            "speaker":"",
            "score":0,
            "isSelected":0,
            "pic":"http://scc.jsyxw.cn/course/37/8837.jpg",
            "studyName":null,
            "segmentName":null,
            "teacher":"研修网课程团队",
            "credit":null,
            "cinfo":"本课介绍了“四有”好老师的提出和内涵，希望广大教育工作者以习总书记的讲话精神为指引，以“四有”为标准，在教书育人的工作中不断创造新业绩。",
            "time": 60600,
            "stageid":4740,
            "isfinish":0,
            "quiz":{
            "finish":0,
            "total":1
            }
            },
            {
            "name":"学为人师 行为世范——“四有”好老师",
            "trainingid":2286,
            "status":"102",
            "type":"102",
            "studycode":"0",
            "segmentcode":"0",
            "template":"Default0610",
            "id":10402325,
            "content":
            {"cinfo":"本课介绍了四有好老师的提出和内涵，希望广大教育工作者以习总书记的讲话精神为指引，以四有为标准，在教书育人的工作中不断创造新业绩。","teacher":"研修网课程团队","imgurl":"http://scc.jsyxw.cn/course/37/8837.jpg"},
            "timelength":"2122",
            "speaker":"",
            "score":0,
            "isSelected":0,
            "pic":"http://scc.jsyxw.cn/course/37/8837.jpg",
            "studyName":null,
            "segmentName":null,
            "teacher":"研修网课程团队",
            "credit":null,
            "cinfo":"本课介绍了“四有”好老师的提出和内涵，希望广大教育工作者以习总书记的讲话精神为指引，以“四有”为标准，在教书育人的工作中不断创造新业绩。",
            "time": 60600,
            "stageid":4740,
            "isfinish":0,
            "quiz":{
            "finish":0,
            "total":1
            }
            }
            ],
    "count":12,
    "page":1,
    "totalPage":2,
    "stageStatus":1
}
